%YAML 1.1
%TAG !u! tag:unity3d.com,2011:
--- !u!114 &11400000
MonoBehaviour:
  m_ObjectHideFlags: 0
  m_CorrespondingSourceObject: {fileID: 0}
  m_PrefabInstance: {fileID: 0}
  m_PrefabAsset: {fileID: 0}
  m_GameObject: {fileID: 0}
  m_Enabled: 1
  m_EditorHideFlags: 0
  m_Script: {fileID: 11500000, guid: 95e66c6366d904e98bc83428217d4fd7, type: 3}
  m_Name: CapsuleRotation
  m_EditorClassIdentifier: 
  _data:
    _json: '{"graph":{"variables":{"Kind":"Flow","collection":{"$content":[],"$version":"A"},"$version":"A"},"controlInputDefinitions":[],"controlOutputDefinitions":[],"valueInputDefinitions":[],"valueOutputDefinitions":[],"title":null,"summary":null,"pan":{"x":0.0,"y":0.0},"zoom":1.0,"elements":[{"coroutine":false,"defaultValues":{},"position":{"x":-392.0,"y":-303.0},"guid":"0fae7dd6-667b-4a3f-adc9-1e16fc30fbc6","$version":"A","$type":"Unity.VisualScripting.Update","$id":"9"},{"chainable":false,"parameterNames":["vector","maxLength"],"member":{"name":"ClampMagnitude","parameterTypes":["UnityEngine.Vector3","System.Single"],"targetType":"UnityEngine.Vector3","targetTypeName":"UnityEngine.Vector3","$version":"A"},"defaultValues":{"%vector":{"x":0.0,"y":0.0,"z":0.0,"$type":"UnityEngine.Vector3"},"%maxLength":{"$content":1.0,"$type":"System.Single"}},"position":{"x":-102.0,"y":-320.0},"guid":"accccf20-a6b0-4383-bb52-9a2ef63c41a4","$version":"A","$type":"Unity.VisualScripting.InvokeMember","$id":"11"},{"specifyFallback":false,"kind":"Object","defaultValues":{"name":{"$content":"RotationAxis","$type":"System.String"},"object":null},"position":{"x":-397.0,"y":-144.0},"guid":"523007ba-ee53-48dd-b080-ce533bdcbf58","$version":"A","$type":"Unity.VisualScripting.GetVariable","$id":"15"},{"specifyFallback":false,"kind":"Object","defaultValues":{"name":{"$content":"RotationSpeed","$type":"System.String"},"object":null},"position":{"x":-164.0,"y":-126.0},"guid":"56f921ee-790f-49b5-bb33-3b0d5f5a76e0","$version":"A","$type":"Unity.VisualScripting.GetVariable","$id":"17"},{"member":{"name":"deltaTime","parameterTypes":null,"targetType":"UnityEngine.Time","targetTypeName":"UnityEngine.Time","$version":"A"},"defaultValues":{},"position":{"x":-292.0,"y":85.0},"guid":"63bcbffc-2d7c-4e9a-856d-97e32a56cb2d","$version":"A","$type":"Unity.VisualScripting.GetMember","$id":"19"},{"defaultValues":{},"position":{"x":1.0,"y":46.0},"guid":"2a838c44-9f20-4398-92f3-0c72b7763d9c","$version":"A","$type":"Unity.VisualScripting.GenericMultiply","$id":"22"},{"defaultValues":{},"position":{"x":139.0,"y":-128.0},"guid":"f74f2154-57c1-46ba-b1b5-7f094a43295d","$version":"A","$type":"Unity.VisualScripting.GenericMultiply","$id":"24"},{"chainable":false,"parameterNames":["eulers"],"member":{"name":"Rotate","parameterTypes":["UnityEngine.Vector3"],"targetType":"UnityEngine.Transform","targetTypeName":"UnityEngine.Transform","$version":"A"},"defaultValues":{"target":null,"%eulers":{"x":0.0,"y":0.0,"z":0.0,"$type":"UnityEngine.Vector3"}},"position":{"x":263.0,"y":-322.0},"guid":"d7ac3a55-de53-4757-bf96-bf3bfe9d669c","$version":"A","$type":"Unity.VisualScripting.InvokeMember","$id":"26"},{"sourceUnit":{"$ref":"9"},"sourceKey":"trigger","destinationUnit":{"$ref":"11"},"destinationKey":"enter","guid":"5f07c457-18bd-4cad-9609-95a2b6564623","$type":"Unity.VisualScripting.ControlConnection"},{"sourceUnit":{"$ref":"11"},"sourceKey":"exit","destinationUnit":{"$ref":"26"},"destinationKey":"enter","guid":"49070777-34f1-4848-ba8b-b350df70a558","$type":"Unity.VisualScripting.ControlConnection"},{"sourceUnit":{"$ref":"15"},"sourceKey":"value","destinationUnit":{"$ref":"11"},"destinationKey":"%vector","guid":"325f8e6b-bef9-4f8c-bb51-18d1c143d1ff","$type":"Unity.VisualScripting.ValueConnection"},{"sourceUnit":{"$ref":"19"},"sourceKey":"value","destinationUnit":{"$ref":"22"},"destinationKey":"b","guid":"20a44b04-af91-46da-a421-e5249f920d30","$type":"Unity.VisualScripting.ValueConnection"},{"sourceUnit":{"$ref":"17"},"sourceKey":"value","destinationUnit":{"$ref":"22"},"destinationKey":"a","guid":"e49f6203-13fc-427a-9005-83764ee91ee9","$type":"Unity.VisualScripting.ValueConnection"},{"sourceUnit":{"$ref":"22"},"sourceKey":"product","destinationUnit":{"$ref":"24"},"destinationKey":"b","guid":"aa523721-4c27-4c59-b340-14663c305ed8","$type":"Unity.VisualScripting.ValueConnection"},{"sourceUnit":{"$ref":"11"},"sourceKey":"result","destinationUnit":{"$ref":"24"},"destinationKey":"a","guid":"58bb108f-4b1f-4f3f-8106-041066234480","$type":"Unity.VisualScripting.ValueConnection"},{"sourceUnit":{"$ref":"24"},"sourceKey":"product","destinationUnit":{"$ref":"26"},"destinationKey":"%eulers","guid":"c0541c71-d255-4901-b25b-28f4d103b2f3","$type":"Unity.VisualScripting.ValueConnection"}],"$version":"A"}}'
    _objectReferences: []
