%YAML 1.1
%TAG !u! tag:unity3d.com,2011:
--- !u!114 &11400000
MonoBehaviour:
  m_ObjectHideFlags: 0
  m_CorrespondingSourceObject: {fileID: 0}
  m_PrefabInstance: {fileID: 0}
  m_PrefabAsset: {fileID: 0}
  m_GameObject: {fileID: 0}
  m_Enabled: 1
  m_EditorHideFlags: 0
  m_Script: {fileID: 11500000, guid: 95e66c6366d904e98bc83428217d4fd7, type: 3}
  m_Name: CapsuleScaling
  m_EditorClassIdentifier: 
  _data:
    _json: '{"graph":{"variables":{"Kind":"Flow","collection":{"$content":[],"$version":"A"},"$version":"A"},"controlInputDefinitions":[],"controlOutputDefinitions":[],"valueInputDefinitions":[],"valueOutputDefinitions":[],"title":null,"summary":null,"pan":{"x":0.0,"y":0.0},"zoom":1.0,"elements":[{"coroutine":false,"defaultValues":{},"position":{"x":-496.0,"y":-252.0},"guid":"cdcb8c0d-272d-46b7-89f0-3435d177ce9e","$version":"A","$type":"Unity.VisualScripting.Update","$id":"9"},{"chainable":false,"parameterNames":["vector","maxLength"],"member":{"name":"ClampMagnitude","parameterTypes":["UnityEngine.Vector3","System.Single"],"targetType":"UnityEngine.Vector3","targetTypeName":"UnityEngine.Vector3","$version":"A"},"defaultValues":{"%vector":{"x":0.0,"y":0.0,"z":0.0,"$type":"UnityEngine.Vector3"},"%maxLength":{"$content":0.0,"$type":"System.Single"}},"position":{"x":-234.0,"y":-260.0},"guid":"01019933-242f-43ae-9c89-4c3fa245e704","$version":"A","$type":"Unity.VisualScripting.InvokeMember","$id":"11"},{"member":{"name":"deltaTime","parameterTypes":null,"targetType":"UnityEngine.Time","targetTypeName":"UnityEngine.Time","$version":"A"},"defaultValues":{},"position":{"x":-445.0,"y":168.0},"guid":"f991f8a6-389c-462c-8daa-fb88f1a2330d","$version":"A","$type":"Unity.VisualScripting.GetMember","$id":"15"},{"specifyFallback":false,"kind":"Object","defaultValues":{"name":{"$content":"ScaleUnits","$type":"System.String"},"object":null},"position":{"x":-232.0,"y":-12.0},"guid":"f4207494-108b-44cc-97db-18b3f0d2866f","$version":"A","$type":"Unity.VisualScripting.GetVariable","$id":"18"},{"member":{"name":"localScale","parameterTypes":null,"targetType":"UnityEngine.Transform","targetTypeName":"UnityEngine.Transform","$version":"A"},"defaultValues":{"target":null},"position":{"x":67.0,"y":202.0},"guid":"2bb44336-58d1-4c36-af1d-fa9cbac6ac69","$version":"A","$type":"Unity.VisualScripting.GetMember","$id":"20"},{"specifyFallback":false,"kind":"Object","defaultValues":{"name":{"$content":"Axes","$type":"System.String"},"object":null},"position":{"x":-479.0,"y":-10.0},"guid":"ba3bff30-c070-487e-a2d0-7595a785b3df","$version":"A","$type":"Unity.VisualScripting.GetVariable","$id":"23"},{"defaultValues":{},"position":{"x":78.0,"y":-32.0},"guid":"282a4c1b-9e3b-4942-9cc0-4fa03b5ea424","$version":"A","$type":"Unity.VisualScripting.GenericMultiply","$id":"25"},{"chainable":false,"member":{"name":"localScale","parameterTypes":null,"targetType":"UnityEngine.Transform","targetTypeName":"UnityEngine.Transform","$version":"A"},"defaultValues":{"target":null,"input":{"x":0.0,"y":0.0,"z":0.0,"$type":"UnityEngine.Vector3"}},"position":{"x":352.0,"y":-280.0},"guid":"3dc620aa-40ae-44a6-b23a-3727d6b2df91","$version":"A","$type":"Unity.VisualScripting.SetMember","$id":"27"},{"inputCount":2,"defaultValues":{},"position":{"x":226.0,"y":-98.0},"guid":"af26ebb6-d9e3-4f0c-8555-353408b6e6b2","$version":"A","$type":"Unity.VisualScripting.GenericSum","$id":"30"},{"defaultValues":{},"position":{"x":-80.0,"y":140.0},"guid":"1789be91-4cf6-42c0-99fc-be171b58f1fc","$version":"A","$type":"Unity.VisualScripting.GenericMultiply","$id":"32"},{"sourceUnit":{"$ref":"9"},"sourceKey":"trigger","destinationUnit":{"$ref":"11"},"destinationKey":"enter","guid":"7e1ba39c-6691-452f-85b6-81db24bf6dd4","$type":"Unity.VisualScripting.ControlConnection"},{"sourceUnit":{"$ref":"11"},"sourceKey":"exit","destinationUnit":{"$ref":"27"},"destinationKey":"assign","guid":"dc69455b-166d-4882-a9f4-c7a58861e406","$type":"Unity.VisualScripting.ControlConnection"},{"sourceUnit":{"$ref":"23"},"sourceKey":"value","destinationUnit":{"$ref":"11"},"destinationKey":"%vector","guid":"77b5f094-b8eb-403c-bf28-76105b7b0295","$type":"Unity.VisualScripting.ValueConnection"},{"sourceUnit":{"$ref":"11"},"sourceKey":"result","destinationUnit":{"$ref":"25"},"destinationKey":"a","guid":"143b93cb-397f-45f1-bd62-0d2b04c5e669","$type":"Unity.VisualScripting.ValueConnection"},{"sourceUnit":{"$ref":"15"},"sourceKey":"value","destinationUnit":{"$ref":"32"},"destinationKey":"b","guid":"40bdf91b-9cbe-418b-97f6-53b4778a214f","$type":"Unity.VisualScripting.ValueConnection"},{"sourceUnit":{"$ref":"18"},"sourceKey":"value","destinationUnit":{"$ref":"32"},"destinationKey":"a","guid":"33559011-f4c6-4ff5-82f6-5f71710d163a","$type":"Unity.VisualScripting.ValueConnection"},{"sourceUnit":{"$ref":"20"},"sourceKey":"value","destinationUnit":{"$ref":"30"},"destinationKey":"1","guid":"356d9747-7cfd-4b50-bbe8-1bb805f97fcb","$type":"Unity.VisualScripting.ValueConnection"},{"sourceUnit":{"$ref":"32"},"sourceKey":"product","destinationUnit":{"$ref":"25"},"destinationKey":"b","guid":"00206d1d-cc19-4098-a81c-a25a15afdc5a","$type":"Unity.VisualScripting.ValueConnection"},{"sourceUnit":{"$ref":"25"},"sourceKey":"product","destinationUnit":{"$ref":"30"},"destinationKey":"0","guid":"e0a4d9d5-8639-4a44-9d86-56e95ea873d6","$type":"Unity.VisualScripting.ValueConnection"},{"sourceUnit":{"$ref":"30"},"sourceKey":"sum","destinationUnit":{"$ref":"27"},"destinationKey":"input","guid":"f1ede5d9-29a8-4573-9937-950a59b05582","$type":"Unity.VisualScripting.ValueConnection"}],"$version":"A"}}'
    _objectReferences: []
