%YAML 1.1
%TAG !u! tag:unity3d.com,2011:
--- !u!114 &11400000
MonoBehaviour:
  m_ObjectHideFlags: 0
  m_CorrespondingSourceObject: {fileID: 0}
  m_PrefabInstance: {fileID: 0}
  m_PrefabAsset: {fileID: 0}
  m_GameObject: {fileID: 0}
  m_Enabled: 1
  m_EditorHideFlags: 0
  m_Script: {fileID: 11500000, guid: 95e66c6366d904e98bc83428217d4fd7, type: 3}
  m_Name: PlayerTankController
  m_EditorClassIdentifier: 
  _data:
    _json: '{"graph":{"variables":{"Kind":"Flow","collection":{"$content":[],"$version":"A"},"$version":"A"},"controlInputDefinitions":[],"controlOutputDefinitions":[],"valueInputDefinitions":[],"valueOutputDefinitions":[],"title":null,"summary":null,"pan":{"x":268.844,"y":65.60939},"zoom":0.8,"elements":[{"coroutine":false,"defaultValues":{},"position":{"x":-366.0,"y":-32.0},"guid":"ae4017fe-2163-455b-8804-241887676332","$version":"A","$type":"Unity.VisualScripting.Update","$id":"9"},{"defaultValues":{},"position":{"x":-143.0,"y":-33.0},"guid":"0f7180f1-9185-41bd-8427-3ca60adbf33f","$version":"A","$type":"Unity.VisualScripting.If","$id":"11"},{"defaultValues":{},"position":{"x":77.0,"y":106.0},"guid":"81020162-8eb9-41de-a549-0ee8adef36c8","$version":"A","$type":"Unity.VisualScripting.If","$id":"13"},{"chainable":false,"parameterNames":["key"],"member":{"name":"GetKey","parameterTypes":["UnityEngine.KeyCode"],"targetType":"UnityEngine.Input","targetTypeName":"UnityEngine.Input","$version":"A"},"defaultValues":{"%key":{"$content":"W","$type":"UnityEngine.KeyCode"}},"position":{"x":-355.0,"y":145.0},"guid":"c697c8b3-7fc2-40c5-a7ad-e7cfab5b28a6","$version":"A","$type":"Unity.VisualScripting.InvokeMember","$id":"15"},{"chainable":false,"parameterNames":["key"],"member":{"name":"GetKey","parameterTypes":["UnityEngine.KeyCode"],"targetType":"UnityEngine.Input","targetTypeName":"UnityEngine.Input","$version":"A"},"defaultValues":{"%key":{"$content":"S","$type":"UnityEngine.KeyCode"}},"position":{"x":-123.0,"y":167.0},"guid":"1e36df90-7322-4405-a864-30cc449f1e72","$version":"A","$type":"Unity.VisualScripting.InvokeMember","$id":"19"},{"defaultValues":{},"position":{"x":-53.0,"y":590.0},"guid":"3a9ab69a-f3d7-40fe-b478-6429475669f2","$version":"A","$type":"Unity.VisualScripting.GenericMultiply","$id":"23"},{"type":"System.Int32","value":{"$content":-1,"$type":"System.Int32"},"defaultValues":{},"position":{"x":-195.0,"y":469.0},"guid":"c11ea9b7-986e-4be3-a561-ebb620fbbf8f","$version":"A","$type":"Unity.VisualScripting.Literal","$id":"25"},{"member":{"name":"deltaTime","parameterTypes":null,"targetType":"UnityEngine.Time","targetTypeName":"UnityEngine.Time","$version":"A"},"defaultValues":{},"position":{"x":-104.0,"y":368.0},"guid":"b632eaae-5a68-428e-be28-37d72488ec8e","$version":"A","$type":"Unity.VisualScripting.GetMember","$id":"27"},{"defaultValues":{},"position":{"x":148.0,"y":516.0},"guid":"7e073323-738f-4590-90bb-27c916e1f8a5","$version":"A","$type":"Unity.VisualScripting.GenericMultiply","$id":"30"},{"chainable":false,"parameterNames":["translation"],"member":{"name":"Translate","parameterTypes":["UnityEngine.Vector3"],"targetType":"UnityEngine.Transform","targetTypeName":"UnityEngine.Transform","$version":"A"},"defaultValues":{"target":null,"%translation":{"x":0.0,"y":0.0,"z":0.0,"$type":"UnityEngine.Vector3"}},"position":{"x":353.0,"y":338.0},"guid":"c24b5b1c-522a-4f5a-adc1-07274fee4af1","$version":"A","$type":"Unity.VisualScripting.InvokeMember","$id":"32"},{"specifyFallback":false,"kind":"Object","defaultValues":{"name":{"$content":"Speed","$type":"System.String"},"object":null},"position":{"x":-266.0,"y":612.0},"guid":"46e2d204-be58-49d0-84c7-bed9165a9a35","$version":"A","$type":"Unity.VisualScripting.GetVariable","$id":"36"},{"member":{"name":"deltaTime","parameterTypes":null,"targetType":"UnityEngine.Time","targetTypeName":"UnityEngine.Time","$version":"A"},"defaultValues":{},"position":{"x":-242.0,"y":-169.0},"guid":"26c6b10f-6349-4771-b120-7e693956a4a6","$version":"A","$type":"Unity.VisualScripting.GetMember","$id":"38"},{"defaultValues":{},"position":{"x":46.0,"y":-201.0},"guid":"a505985f-d5dd-48d4-b8bc-9298978e0989","$version":"A","$type":"Unity.VisualScripting.GenericMultiply","$id":"41"},{"chainable":false,"parameterNames":["translation"],"member":{"name":"Translate","parameterTypes":["UnityEngine.Vector3"],"targetType":"UnityEngine.Transform","targetTypeName":"UnityEngine.Transform","$version":"A"},"defaultValues":{"target":null,"%translation":{"x":0.0,"y":0.0,"z":0.0,"$type":"UnityEngine.Vector3"}},"position":{"x":442.0,"y":-83.0},"guid":"c1bc0bc0-3cf5-49a5-84bf-cf46ec3489b1","$version":"A","$type":"Unity.VisualScripting.InvokeMember","$id":"43"},{"specifyFallback":false,"kind":"Object","defaultValues":{"name":{"$content":"Speed","$type":"System.String"},"object":null},"position":{"x":-199.0,"y":-353.0},"guid":"eadfadff-1736-41d6-b69a-aa4c9b4b30f8","$version":"A","$type":"Unity.VisualScripting.GetVariable","$id":"47"},{"sourceUnit":{"$ref":"9"},"sourceKey":"trigger","destinationUnit":{"$ref":"11"},"destinationKey":"enter","guid":"856485cc-fabb-4f6b-98ec-66521eb17fec","$type":"Unity.VisualScripting.ControlConnection"},{"sourceUnit":{"$ref":"13"},"sourceKey":"ifTrue","destinationUnit":{"$ref":"32"},"destinationKey":"enter","guid":"979ab91a-4cff-4e0f-b980-eb92c5e27448","$type":"Unity.VisualScripting.ControlConnection"},{"sourceUnit":{"$ref":"11"},"sourceKey":"ifFalse","destinationUnit":{"$ref":"13"},"destinationKey":"enter","guid":"46c3f5d6-b5f8-4b59-b079-2ebecc45fb73","$type":"Unity.VisualScripting.ControlConnection"},{"sourceUnit":{"$ref":"11"},"sourceKey":"ifTrue","destinationUnit":{"$ref":"43"},"destinationKey":"enter","guid":"a1cb8576-2bc0-48fa-9c96-20d90ee3d97d","$type":"Unity.VisualScripting.ControlConnection"},{"sourceUnit":{"$ref":"41"},"sourceKey":"product","destinationUnit":{"$ref":"43"},"destinationKey":"%translation","guid":"5a6311c6-d946-49af-b879-2911338a4482","$type":"Unity.VisualScripting.ValueConnection"},{"sourceUnit":{"$ref":"15"},"sourceKey":"result","destinationUnit":{"$ref":"11"},"destinationKey":"condition","guid":"977cf29d-a5af-49cc-a632-1e06bd812c60","$type":"Unity.VisualScripting.ValueConnection"},{"sourceUnit":{"$ref":"25"},"sourceKey":"output","destinationUnit":{"$ref":"23"},"destinationKey":"a","guid":"a209368a-6061-4adc-b400-2952485e0e70","$type":"Unity.VisualScripting.ValueConnection"},{"sourceUnit":{"$ref":"23"},"sourceKey":"product","destinationUnit":{"$ref":"30"},"destinationKey":"a","guid":"7b63928e-6d61-479b-9915-d6e1d47c8ad2","$type":"Unity.VisualScripting.ValueConnection"},{"sourceUnit":{"$ref":"27"},"sourceKey":"value","destinationUnit":{"$ref":"30"},"destinationKey":"b","guid":"e8354cab-8956-45f9-90cb-f207e3dc4dd1","$type":"Unity.VisualScripting.ValueConnection"},{"sourceUnit":{"$ref":"30"},"sourceKey":"product","destinationUnit":{"$ref":"32"},"destinationKey":"%translation","guid":"629ce474-6b5d-424f-b041-726cdd44b461","$type":"Unity.VisualScripting.ValueConnection"},{"sourceUnit":{"$ref":"38"},"sourceKey":"value","destinationUnit":{"$ref":"41"},"destinationKey":"b","guid":"495c95a9-f229-4118-9423-93b604f8764e","$type":"Unity.VisualScripting.ValueConnection"},{"sourceUnit":{"$ref":"19"},"sourceKey":"result","destinationUnit":{"$ref":"13"},"destinationKey":"condition","guid":"675bb7b4-e794-400e-bbb8-a891c000a159","$type":"Unity.VisualScripting.ValueConnection"},{"sourceUnit":{"$ref":"36"},"sourceKey":"value","destinationUnit":{"$ref":"23"},"destinationKey":"b","guid":"f3689343-115a-4336-9acd-6c67d55bea64","$type":"Unity.VisualScripting.ValueConnection"},{"sourceUnit":{"$ref":"47"},"sourceKey":"value","destinationUnit":{"$ref":"41"},"destinationKey":"a","guid":"effc1a13-f458-46a2-a13d-96c8169b8c16","$type":"Unity.VisualScripting.ValueConnection"}],"$version":"A"}}'
    _objectReferences: []
